[
    {
        "_id": {
            "$oid": "64dc4b5e5f28f42fc9fcb1ac"
        },
        "name": "Test All Steps",
        "description": "",
        "workspaceID": "64dc4b555f28f42fc9fcb196",
        "workspace": "Test Steps",
        "steps": [
            {
                "order": 1,
                "name": "Step1",
                "type": "TRANSFER",
                "definition": {
                    "source": {
                        "item": "12x8_0.2_rack",
                        "by": "name",
                        "value": "tube1"
                    },
                    "volume": {
                        "type": "fixed_each",
                        "value": "10"
                    },
                    "target": {
                        "item": "12x8_0.2_rack",
                        "by": "name",
                        "value": "tube2"
                    },
                    "tip": {
                        "item": "200ul_tip_rack",
                        "discardItem": "descarte",
                        "mode": "reuse"
                    },
                    "tool": "P20"
                },
                "_id": {
                    "$oid": "64dc4c005f28f42fc9fcc87b"
                }
            },
            {
                "order": 2,
                "name": "Step2",
                "type": "MIX",
                "definition": {
                    "target": {
                        "item": "12x8_0.2_rack",
                        "by": "name",
                        "value": "tube2"
                    },
                    "mix": {
                        "percentage": "50",
                        "count": "3",
                        "type": "content"
                    },
                    "tip": {
                        "item": "200ul_tip_rack",
                        "discardItem": "descarte",
                        "mode": "reuse"
                    },
                    "tool": "P200"
                },
                "_id": {
                    "$oid": "64dc4c005f28f42fc9fcc87c"
                }
            },
            {
                "order": 3,
                "name": "Step3",
                "type": "HUMAN",
                "definition": {
                    "text": "Hi there!"
                },
                "_id": {
                    "$oid": "64dc4c005f28f42fc9fcc87d"
                }
            },
            {
                "order": 4,
                "name": "Step4",
                "type": "COMMENT",
                "definition": {
                    "text": "Hello world!"
                },
                "_id": {
                    "$oid": "64dc4c005f28f42fc9fcc87e"
                }
            },
            {
                "order": 5,
                "name": "Step5",
                "type": "WAIT",
                "definition": {
                    "seconds": "10"
                },
                "_id": {
                    "$oid": "64dc4c005f28f42fc9fcc87f"
                }
            }
        ],
        "createdAt": {
            "$date": "2023-08-16T04:06:54.064Z"
        },
        "updatedAt": {
            "$date": "2023-08-16T04:09:36.661Z"
        },
        "__v": 0
    }
]
