{
  "name": "Basic Protocol",
  "description": "Showcase protocol with a single step.",
  "workspace": "Basic Workspace",
  "workspaceID": "Basic Workspace",
  "template": "",
  "templateDefinition": {},
  "steps": [
    {
      "order": 1,
      "name": "step1",
      "type": "TRANSFER",
      "definition": {
        "source": {
          "item": "5x16_1.5_rack 1",
          "by": "name",
          "value": "loading_buffer_5x",
          "treatAs": "same"
        },
        "target": {
          "item": "5x16_1.5_rack 1",
          "by": "tag",
          "value": "sample"
        },
        "volume": {
          "type": "fixed_each",
          "value": 10
        },
        "tip": {
          "mode": "reuse",
          "item": "200ul_tip_rack_MULTITOOL 1",
          "discardItem": "trash_bucket 1"
        },
        "tool": "P20"
      }
    }
  ]
}